Skagit Sockeye Forecast
…
27369

14601

51302

Evaluate Forecasts

Here we will evaluate forecasts using Mean Absolute Percent Error (MAPE), Root Mean Squared Error (RMSE), and Median Symmetric Accuracy (MSA). RMSE and MAPE tend to more heavily penalize over-forecasts relative to under-forecasts for abundance (because errors are right-skewed), whereas MSA is specifically tailored for right tailed distributions. We will also calculated model weights

forecast_skill<-evaluate_forecasts(forecasts=forecasts,observations=dat)

forecasts[which(forecasts$Model %in% forecast_skill$Model[1:10]),]

## # A tibble: 120 x 5
##    Model     Year Estimate   L95     U95
##    <chr>    <dbl>    <dbl> <dbl>   <dbl>
##  1 ARIMA100  2011    5511. 1738.  17473.
##  2 ARIMA100  2012    9923. 2452.  40155.
##  3 ARIMA100  2013   18322. 4115.  81580.
##  4 ARIMA100  2014   12418. 2924.  52741.
##  5 ARIMA100  2015   15816. 3724.  67169.
##  6 ARIMA100  2016   25094. 5651. 111434.
##  7 ARIMA100  2017   25206. 5829. 108990.
##  8 ARIMA100  2018   22582. 5402.  94402.
##  9 ARIMA100  2019   22237. 5479.  90248.
## 10 ARIMA100  2020   18292. 4655.  71881.
## # ... with 110 more rows
…
